<?xml version="1.0" encoding="UTF-8" standalone="no"?>
<!-- Created with Inkscape (http://www.inkscape.org/) -->

<svg
   width="32.900002mm"
   height="41.299999mm"
   viewBox="0 0 32.900001 41.300002"
   version="1.1"
   id="svg265"
   inkscape:version="1.2.2 (b0a8486541, 2022-12-01)"
   sodipodi:docname="drawing.svg"
   xmlns:inkscape="http://www.inkscape.org/namespaces/inkscape"
   xmlns:sodipodi="http://sodipodi.sourceforge.net/DTD/sodipodi-0.dtd"
   xmlns="http://www.w3.org/2000/svg"
   xmlns:svg="http://www.w3.org/2000/svg">
  <sodipodi:namedview
     id="namedview267"
     pagecolor="#505050"
     bordercolor="#eeeeee"
     borderopacity="1"
     inkscape:showpageshadow="0"
     inkscape:pageopacity="0"
     inkscape:pagecheckerboard="0"
     inkscape:deskcolor="#505050"
     inkscape:document-units="mm"
     showgrid="false"
     inkscape:zoom="1.829812"
     inkscape:cx="136.07955"
     inkscape:cy="214.77616"
     inkscape:window-width="3440"
     inkscape:window-height="1413"
     inkscape:window-x="2560"
     inkscape:window-y="0"
     inkscape:window-maximized="1"
     inkscape:current-layer="layer1" />
  <defs
     id="defs262" />
  <g
     inkscape:label="Layer 1"
     inkscape:groupmode="layer"
     id="layer1">
    <path
       d="m 6.0401264,8.2189588 c 0,0 -0.264583,-0.47625 -0.820208,-0.47625 l -2.725209,-0.05292 c 0,0 -0.555625,0 -0.820208,0.449792 L 0.27220941,10.494376 c 0,0 -0.291041,0.47625 -0.02646,0.9525 l 1.32291699,2.38125 c 0,0 0.264583,0.47625 0.820208,0.47625 l 2.725208,0.0529 c 0,0 0.555625,0 0.820209,-0.4498 l 1.402291,-2.354787 c 0,0 0.291042,-0.47625 0.02646,-0.9525 z M 14.162835,0.33437576 c 0,0 -0.396875,-0.370417 -0.926041,-0.185209 l -2.619375,0.82020902 c 0,0 -0.529167,0.15875002 -0.6350005,0.68791602 l -0.582084,2.672292 c 0,0 -0.105833,0.529167 0.291042,0.899583 l 2.0372925,1.825625 c 0,0 0.396875,0.370417 0.926041,0.185209 l 2.592917,-0.846667 c 0,0 0.529166,-0.15875 0.635,-0.687917 l 0.582083,-2.672291 c 0,0 0.105833,-0.529167 -0.291042,-0.899584 z m -3.175,33.65500024 c 0,0 -0.47625,-0.23813 -0.9525,0.0529 l -2.3018756,1.48166 c 0,0 -0.449791,0.29104 -0.423333,0.84667 l 0.132292,2.72521 c 0,0 0.02646,0.55562 0.502708,0.79375 l 2.4341676,1.24354 c 0,0 0.47625,0.23812 0.9525,-0.0529 l 2.301874,-1.48166 c 0,0 0.449792,-0.29105 0.423334,-0.84667 l -0.132292,-2.72521 c 0,0 -0.02646,-0.55562 -0.502708,-0.79375 z m 9.630833,-20.55813 c 0,0 -1.058333,-0.60854 -2.116666,0 l -5.318125,3.06917 c 0,0 -1.058333,0.60854 -1.058333,1.82563 v 6.13833 c 0,0 0,1.21708 1.058333,1.82562 l 5.318125,3.06917 c 0,0 1.058333,0.60854 2.116666,0 l 5.318122,-3.06917 c 0,0 1.05834,-0.60854 1.05834,-1.82562 v -6.13833 c 0,0 0,-1.21709 -1.05834,-1.82563 z"
       class="st1"
       id="path198"
       style="fill:#c2d100;stroke-width:0.264583" />
    <path
       d="m 32.86888,21.157086 c 0,-7.32896 -5.92667,-13.2556272 -13.255628,-13.2556272 -7.328958,0 -13.2556256,5.9266672 -13.2556256,13.2556272 0,7.32896 5.9266676,13.25562 13.2556256,13.25562 7.302498,0 13.255628,-5.92666 13.255628,-13.25562 z m -0.74084,0.0265 c 0,6.90562 -5.5827,12.48833 -12.48833,12.48833 -6.905625,0 -12.4883336,-5.58271 -12.4883336,-12.48833 0,-6.90563 5.5827086,-12.4883372 12.4883336,-12.4883372 6.87917,0 12.48833,5.5827072 12.48833,12.4883372 z"
       class="st0"
       id="path200"
       style="fill:#2a2459;stroke-width:0.264583" />
  </g>
</svg>
