<?xml version="1.0" encoding="UTF-8" standalone="no"?>
<svg
   id="Nachtrag"
   viewBox="0 0 708.66 708.66"
   version="1.1"
   sodipodi:docname="perinet-update.svg"
   inkscape:version="1.2.1 (9c6d41e410, 2022-07-14)"
   xmlns:inkscape="http://www.inkscape.org/namespaces/inkscape"
   xmlns:sodipodi="http://sodipodi.sourceforge.net/DTD/sodipodi-0.dtd"
   xmlns="http://www.w3.org/2000/svg"
   xmlns:svg="http://www.w3.org/2000/svg">
  <sodipodi:namedview
     id="namedview13"
     pagecolor="#ffffff"
     bordercolor="#666666"
     borderopacity="1.0"
     inkscape:showpageshadow="2"
     inkscape:pageopacity="0.0"
     inkscape:pagecheckerboard="true"
     inkscape:deskcolor="#d1d1d1"
     showgrid="false"
     inkscape:zoom="1.0247491"
     inkscape:cx="229.32443"
     inkscape:cy="334.22816"
     inkscape:window-width="2560"
     inkscape:window-height="1363"
     inkscape:window-x="0"
     inkscape:window-y="40"
     inkscape:window-maximized="1"
     inkscape:current-layer="Nachtrag" />
  <defs
     id="defs4">
    <style
       id="style2">.cls-1{fill:#c3d205;}.cls-2{fill:#2a2459;}</style>
  </defs>
  <path
     class="cls-1"
     d="M387.82,689.7s-37.2,20.1-74.41,0l-234.67-135s-37.21-23-37.21-66v-267s0-45.94,37.21-66L313.41,20.71s37.21-20.1,74.41,0l234.68,135s37.2,20.09,37.2,66v267s0,43.07-37.2,66l-234.68,135Z"
     id="path6" />
  <text
     xml:space="preserve"
     style="font-style:normal;font-variant:normal;font-weight:normal;font-stretch:normal;font-size:64px;line-height:1.25;font-family:Lato;-inkscape-font-specification:'Lato, Normal';font-variant-ligatures:normal;font-variant-caps:normal;font-variant-numeric:normal;font-variant-east-asian:normal;fill:#2a2459;fill-opacity:1;stroke:none;stroke-opacity:1"
     x="252.07106"
     y="373.285"
     id="text296"><tspan
       sodipodi:role="line"
       id="tspan294"
       x="252.07106"
       y="373.285">update</tspan></text>
</svg>
